Chronologic VCS simulator copyright 1991-2017
Contains Synopsys proprietary information.
Compiler version N-2017.12-SP2-1_Full64; Runtime version N-2017.12-SP2-1_Full64;  Oct  5 15:57 2019
VCD+ Writer N-2017.12-SP2-1_Full64 Copyright (c) 1991-2017 by Synopsys Inc.
@@
@@
@@                     0  Asserting System reset......
@@
@@                     0 : System STILL at reset, can't show anything
@@
@@
@@                   100 : System STILL at reset, can't show anything
@@
@@
@@                   200 : System STILL at reset, can't show anything
@@
@@
@@                   300 : System STILL at reset, can't show anything
@@
@@                   360  Deasserting System reset......
@@
@@
@@@ Unified Memory contents hex on left, decimal on right: 
@@@
@@@ mem[    0] = 00001fb700100413 : 34870840525843
@@@ mem[    8] = 01000def00e00893 : 72072914200955027
@@@ mem[   16] = 0011202340000113 : 4820410373767443
@@@ mem[   24] = 0408806310500073 : 290623338929193075
@@@ mem[   32] = fe0f8f9300000ded : 18307008871807323629
@@@ mem[   40] = 011fa02301bfac23 : 80959390529596451
@@@ mem[   48] = fe9ffdeffff88893 : 18347662614164179091
@@@ mem[   56] = 000fa88300000038 : 4407405244842040
@@@ mem[   64] = fd9ffdef00000dee : 18275605015831776750
@@@ mem[   72] = 001100b3008fa103 : 4785843412640003
@@@ mem[   80] = 020f8f93018fad83 : 148495174275673475
@@@ mem[   88] = 0010009300000038 : 4504230987563064
@@@ mem[   96] = 0000000000000def : 3567
@@@
@@@ mem[  120] = 0000000000000038 : 56
@@@ mem[  128] = 0000000000000df0 : 3568
@@@
@@@ mem[  152] = 0000000000000038 : 56
@@@ mem[  160] = 0000000000000df1 : 3569
@@@
@@@ mem[  184] = 0000000000000038 : 56
@@@ mem[  192] = 0000000000000df2 : 3570
@@@
@@@ mem[  216] = 0000000000000038 : 56
@@@ mem[  224] = 0000000000000df3 : 3571
@@@
@@@ mem[  248] = 0000000000000038 : 56
@@@ mem[  256] = 0000000000000df4 : 3572
@@@
@@@ mem[  280] = 0000000000000038 : 56
@@@ mem[  288] = 0000000000000df5 : 3573
@@@
@@@ mem[  312] = 0000000000000038 : 56
@@@ mem[  320] = 0000000000000df6 : 3574
@@@
@@@ mem[  344] = 0000000000000038 : 56
@@@ mem[  352] = 0000000000000df7 : 3575
@@@
@@@ mem[  376] = 0000000000000038 : 56
@@@ mem[  384] = 0000000000000df8 : 3576
@@@
@@@ mem[  408] = 0000000000000038 : 56
@@@ mem[  416] = 0000000000000df9 : 3577
@@@
@@@ mem[  440] = 0000000000000038 : 56
@@@ mem[  448] = 0000000000000dfa : 3578
@@@
@@@ mem[  472] = 0000000000000038 : 56
@@@ mem[  480] = 0000000000000dfb : 3579
@@@
@@@ mem[  504] = 0000000000000038 : 56
@@@ mem[  512] = 0000000000000dfc : 3580
@@@
@@@ mem[  536] = 0000000000000038 : 56
@@@ mem[  544] = 0000000000000dfd : 3581
@@@
@@@ mem[  568] = 0000000000000038 : 56
@@@ mem[  576] = 0000000000000dfe : 3582
@@@
@@@ mem[  600] = 0000000000000038 : 56
@@@ mem[  608] = 0000000000000dff : 3583
@@@
@@@ mem[  632] = 0000000000000038 : 56
@@@ mem[  640] = 0000000000000e00 : 3584
@@@
@@@ mem[  664] = 0000000000000038 : 56
@@@ mem[  672] = 0000000000000e01 : 3585
@@@
@@@ mem[  696] = 0000000000000038 : 56
@@@ mem[  704] = 0000000000000e02 : 3586
@@@
@@@ mem[  728] = 0000000000000038 : 56
@@@ mem[  736] = 0000000000000e03 : 3587
@@@
@@@ mem[  760] = 0000000000000038 : 56
@@@ mem[  768] = 0000000000000e04 : 3588
@@@
@@@ mem[  792] = 0000000000000038 : 56
@@@ mem[  800] = 0000000000000e05 : 3589
@@@
@@@ mem[  824] = 0000000000000038 : 56
@@@ mem[  832] = 0000000000000e06 : 3590
@@@
@@@ mem[  856] = 0000000000000038 : 56
@@@ mem[  864] = 0000000000000e07 : 3591
@@@
@@@ mem[  888] = 0000000000000038 : 56
@@@ mem[  896] = 0000000000000e08 : 3592
@@@
@@@ mem[  920] = 0000000000000038 : 56
@@@ mem[  928] = 0000000000000e09 : 3593
@@@
@@@ mem[  952] = 0000000000000038 : 56
@@@ mem[  960] = 0000000000000e0a : 3594
@@@
@@@ mem[  984] = 0000000000000038 : 56
@@@ mem[  992] = 0000000000000e0b : 3595
@@@
@@@ mem[ 1016] = 0000000000000038 : 56
@@@ mem[ 1024] = 0000000000000e0c : 3596
@@@
@@@ mem[ 1048] = 0000000000000038 : 56
@@@ mem[ 1056] = 0000000000000e0d : 3597
@@@
@@@ mem[ 1080] = 0000000000000038 : 56
@@@ mem[ 1088] = 0000000000000e0e : 3598
@@@
@@@ mem[ 1112] = 0000000000000038 : 56
@@@ mem[ 1120] = 0000000000000e0f : 3599
@@@
@@@ mem[ 1144] = 0000000000000038 : 56
@@@ mem[ 1152] = 0000000000000e10 : 3600
@@@
@@@ mem[ 1176] = 0000000000000038 : 56
@@@ mem[ 1184] = 0000000000000e11 : 3601
@@@
@@@ mem[ 1208] = 0000000000000038 : 56
@@@ mem[ 1216] = 0000000000000e12 : 3602
@@@
@@@ mem[ 1240] = 0000000000000038 : 56
@@@ mem[ 1248] = 0000000000000e13 : 3603
@@@
@@@ mem[ 1272] = 0000000000000038 : 56
@@@ mem[ 1280] = 0000000000000e14 : 3604
@@@
@@@ mem[ 1304] = 0000000000000038 : 56
@@@ mem[ 1312] = 0000000000000e15 : 3605
@@@
@@@ mem[ 1336] = 0000000000000038 : 56
@@@ mem[ 1344] = 0000000000000e16 : 3606
@@@
@@@ mem[ 1368] = 0000000000000038 : 56
@@@ mem[ 1376] = 0000000000000e17 : 3607
@@@
@@@ mem[ 1400] = 0000000000000038 : 56
@@@ mem[ 1408] = 0000000000000e18 : 3608
@@@
@@@ mem[ 1432] = 0000000000000038 : 56
@@@ mem[ 1440] = 0000000000000e19 : 3609
@@@
@@@ mem[ 1464] = 0000000000000038 : 56
@@@ mem[ 1472] = 0000000000000e1a : 3610
@@@
@@@ mem[ 1496] = 0000000000000038 : 56
@@@ mem[ 1504] = 0000000000000e1b : 3611
@@@
@@@ mem[ 1528] = 0000000000000038 : 56
@@@ mem[ 1536] = 0000000000000e1c : 3612
@@@
@@@ mem[ 1560] = 0000000000000038 : 56
@@@ mem[ 1568] = 0000000000000e1d : 3613
@@@
@@@ mem[ 1592] = 0000000000000038 : 56
@@@ mem[ 1600] = 0000000000000e1e : 3614
@@@
@@@ mem[ 1624] = 0000000000000038 : 56
@@@ mem[ 1632] = 0000000000000e1f : 3615
@@@
@@@ mem[ 1656] = 0000000000000038 : 56
@@@ mem[ 1664] = 0000000000000e20 : 3616
@@@
@@@ mem[ 1688] = 0000000000000038 : 56
@@@ mem[ 1696] = 0000000000000e21 : 3617
@@@
@@@ mem[ 1720] = 0000000000000038 : 56
@@@ mem[ 1728] = 0000000000000e22 : 3618
@@@
@@@ mem[ 1752] = 0000000000000038 : 56
@@@ mem[ 1760] = 0000000000000e23 : 3619
@@@
@@@ mem[ 1784] = 0000000000000038 : 56
@@@ mem[ 1792] = 0000000000000e24 : 3620
@@@
@@@ mem[ 1816] = 0000000000000038 : 56
@@@ mem[ 1824] = 0000000000000e25 : 3621
@@@
@@@ mem[ 1848] = 0000000000000038 : 56
@@@ mem[ 1856] = 0000000000000e26 : 3622
@@@
@@@ mem[ 1880] = 0000000000000038 : 56
@@@ mem[ 1888] = 0000000000000e27 : 3623
@@@
@@@ mem[ 1912] = 0000000000000038 : 56
@@@ mem[ 1920] = 0000000000000e28 : 3624
@@@
@@@ mem[ 1944] = 0000000000000038 : 56
@@@ mem[ 1952] = 0000000000000e29 : 3625
@@@
@@@ mem[ 1976] = 0000000000000038 : 56
@@@ mem[ 1984] = 0000000000000e2a : 3626
@@@
@@@ mem[ 2008] = 0000000000000038 : 56
@@@ mem[ 2016] = 0000000000000e2b : 3627
@@@
@@@ mem[ 2040] = 0000000000000038 : 56
@@@ mem[ 2048] = 0000000000000e2c : 3628
@@@
@@@ mem[ 2072] = 0000000000000038 : 56
@@@ mem[ 2080] = 0000000000000e2d : 3629
@@@
@@@ mem[ 2104] = 0000000000000038 : 56
@@@ mem[ 2112] = 0000000000000e2e : 3630
@@@
@@@ mem[ 2136] = 0000000000000038 : 56
@@@ mem[ 2144] = 0000000000000e2f : 3631
@@@
@@@ mem[ 2168] = 0000000000000038 : 56
@@@ mem[ 2176] = 0000000000000e30 : 3632
@@@
@@@ mem[ 2200] = 0000000000000038 : 56
@@@ mem[ 2208] = 0000000000000e31 : 3633
@@@
@@@ mem[ 2232] = 0000000000000038 : 56
@@@ mem[ 2240] = 0000000000000e32 : 3634
@@@
@@@ mem[ 2264] = 0000000000000038 : 56
@@@ mem[ 2272] = 0000000000000e33 : 3635
@@@
@@@ mem[ 2296] = 0000000000000038 : 56
@@@ mem[ 2304] = 0000000000000e34 : 3636
@@@
@@@ mem[ 2328] = 0000000000000038 : 56
@@@ mem[ 2336] = 0000000000000e35 : 3637
@@@
@@@ mem[ 2360] = 0000000000000038 : 56
@@@ mem[ 2368] = 0000000000000e36 : 3638
@@@
@@@ mem[ 2392] = 0000000000000038 : 56
@@@ mem[ 2400] = 0000000000000e37 : 3639
@@@
@@@ mem[ 2424] = 0000000000000038 : 56
@@@ mem[ 2432] = 0000000000000e38 : 3640
@@@
@@@ mem[ 2456] = 0000000000000038 : 56
@@@ mem[ 2464] = 0000000000000e39 : 3641
@@@
@@@ mem[ 2488] = 0000000000000038 : 56
@@@ mem[ 2496] = 0000000000000e3a : 3642
@@@
@@@ mem[ 2520] = 0000000000000038 : 56
@@@ mem[ 2528] = 0000000000000e3b : 3643
@@@
@@@ mem[ 2552] = 0000000000000038 : 56
@@@ mem[ 2560] = 0000000000000e3c : 3644
@@@
@@@ mem[ 2584] = 0000000000000038 : 56
@@@ mem[ 2592] = 0000000000000e3d : 3645
@@@
@@@ mem[ 2616] = 0000000000000038 : 56
@@@ mem[ 2624] = 0000000000000e3e : 3646
@@@
@@@ mem[ 2648] = 0000000000000038 : 56
@@@ mem[ 2656] = 0000000000000e3f : 3647
@@@
@@@ mem[ 2680] = 0000000000000038 : 56
@@@ mem[ 2688] = 0000000000000e40 : 3648
@@@
@@@ mem[ 2712] = 0000000000000038 : 56
@@@ mem[ 2720] = 0000000000000e41 : 3649
@@@
@@@ mem[ 2744] = 0000000000000038 : 56
@@@ mem[ 2752] = 0000000000000e42 : 3650
@@@
@@@ mem[ 2776] = 0000000000000038 : 56
@@@ mem[ 2784] = 0000000000000e43 : 3651
@@@
@@@ mem[ 2808] = 0000000000000038 : 56
@@@ mem[ 2816] = 0000000000000e44 : 3652
@@@
@@@ mem[ 2840] = 0000000000000038 : 56
@@@ mem[ 2848] = 0000000000000e45 : 3653
@@@
@@@ mem[ 2872] = 0000000000000038 : 56
@@@ mem[ 2880] = 0000000000000e46 : 3654
@@@
@@@ mem[ 2904] = 0000000000000038 : 56
@@@ mem[ 2912] = 0000000000000e47 : 3655
@@@
@@@ mem[ 2936] = 0000000000000038 : 56
@@@ mem[ 2944] = 0000000000000e48 : 3656
@@@
@@@ mem[ 2968] = 0000000000000038 : 56
@@@ mem[ 2976] = 0000000000000e49 : 3657
@@@
@@@ mem[ 3000] = 0000000000000038 : 56
@@@ mem[ 3008] = 0000000000000e4a : 3658
@@@
@@@ mem[ 3032] = 0000000000000038 : 56
@@@ mem[ 3040] = 0000000000000e4b : 3659
@@@
@@@ mem[ 3064] = 0000000000000038 : 56
@@@ mem[ 3072] = 0000000000000e4c : 3660
@@@
@@@ mem[ 3096] = 0000000000000038 : 56
@@@ mem[ 3104] = 0000000000000e4d : 3661
@@@
@@@ mem[ 3128] = 0000000000000038 : 56
@@@ mem[ 3136] = 0000000000000e4e : 3662
@@@
@@@ mem[ 3160] = 0000000000000038 : 56
@@@ mem[ 3168] = 0000000000000e4f : 3663
@@@
@@@ mem[ 3192] = 0000000000000038 : 56
@@@ mem[ 3200] = 0000000000000e50 : 3664
@@@
@@@ mem[ 3224] = 0000000000000038 : 56
@@@ mem[ 3232] = 0000000000000e51 : 3665
@@@
@@@ mem[ 3256] = 0000000000000038 : 56
@@@ mem[ 3264] = 0000000000000e52 : 3666
@@@
@@@ mem[ 3288] = 0000000000000038 : 56
@@@ mem[ 3296] = 0000000000000e53 : 3667
@@@
@@@ mem[ 3320] = 0000000000000038 : 56
@@@ mem[ 3328] = 0000000000000e54 : 3668
@@@
@@@ mem[ 3352] = 0000000000000038 : 56
@@@ mem[ 3360] = 0000000000000e55 : 3669
@@@
@@@ mem[ 3384] = 0000000000000038 : 56
@@@ mem[ 3392] = 0000000000000e56 : 3670
@@@
@@@ mem[ 3416] = 0000000000000038 : 56
@@@ mem[ 3424] = 0000000000000e57 : 3671
@@@
@@@ mem[ 3448] = 0000000000000038 : 56
@@@ mem[ 3456] = 0000000000000e58 : 3672
@@@
@@@ mem[ 3480] = 0000000000000038 : 56
@@@ mem[ 3488] = 0000000000000e59 : 3673
@@@
@@@ mem[ 3512] = 0000000000000038 : 56
@@@ mem[ 3520] = 0000000000000e5a : 3674
@@@
@@@ mem[ 3544] = 0000000000000038 : 56
@@@ mem[ 3552] = 0000000000000e5b : 3675
@@@
@@@ mem[ 3576] = 0000000000000038 : 56
@@@ mem[ 3584] = 0000000000000e5c : 3676
@@@
@@@ mem[ 3608] = 0000000000000038 : 56
@@@ mem[ 3616] = 0000000000000e5d : 3677
@@@
@@@ mem[ 3640] = 0000000000000038 : 56
@@@ mem[ 3648] = 0000000000000e5e : 3678
@@@
@@@ mem[ 3672] = 0000000000000048 : 72
@@@ mem[ 3680] = 0000000000000002 : 2
@@@ mem[ 3688] = 0000000000000001 : 1
@@@
@@@ mem[ 3704] = 0000000000000038 : 56
@@@ mem[ 3712] = 0000000000000003 : 3
@@@
@@@ mem[ 3736] = 0000000000000038 : 56
@@@ mem[ 3744] = 0000000000000004 : 4
@@@
@@@ mem[ 3768] = 0000000000000038 : 56
@@@ mem[ 3776] = 0000000000000005 : 5
@@@
@@@ mem[ 3800] = 0000000000000038 : 56
@@@ mem[ 3808] = 0000000000000006 : 6
@@@
@@@ mem[ 3832] = 0000000000000038 : 56
@@@ mem[ 3840] = 0000000000000007 : 7
@@@
@@@ mem[ 3864] = 0000000000000038 : 56
@@@ mem[ 3872] = 0000000000000008 : 8
@@@
@@@ mem[ 3896] = 0000000000000038 : 56
@@@ mem[ 3904] = 0000000000000009 : 9
@@@
@@@ mem[ 3928] = 0000000000000038 : 56
@@@ mem[ 3936] = 000000000000000a : 10
@@@
@@@ mem[ 3960] = 0000000000000038 : 56
@@@ mem[ 3968] = 000000000000000b : 11
@@@
@@@ mem[ 3992] = 0000000000000038 : 56
@@@ mem[ 4000] = 000000000000000c : 12
@@@
@@@ mem[ 4024] = 0000000000000038 : 56
@@@ mem[ 4032] = 000000000000000d : 13
@@@
@@@ mem[ 4056] = 0000000000000038 : 56
@@@ mem[ 4064] = 000000000000000e : 14
@@@
@@@ mem[ 4088] = 0000000000000010 : 16
@@@
@@@
@@                156020 : System halted
@@
@@@ System halted on illegal instruction
@@@
@@
@@  1557 cycles / 902 instrs = 1.726164 CPI
@@
@@  15560.00 ns total time to execute
@@

$finish called from file "testbench/testbench.sv", line 266.
$finish at simulation time               157020
           V C S   S i m u l a t i o n   R e p o r t 
Time: 15702000 ps
CPU Time:      0.360 seconds;       Data structure size:   0.2Mb
Sat Oct  5 15:57:59 2019
